fillter_mode4_tb.vcd
$date
	Sun Jun 23 22:18:32 2024
$end
$version
	ModelSim Version 2020.1
$end
$timescale
	1ps
$end

$scope module fillter_mode4_tb $end
$var reg 11 ! Address_i_tb [10:0] $end
$var reg 3 " Mode_i_tb [2:0] $end
$var reg 1 # clk $end
$var wire 1 $ Address_o_tb [10] $end
$var wire 1 % Address_o_tb [9] $end
$var wire 1 & Address_o_tb [8] $end
$var wire 1 ' Address_o_tb [7] $end
$var wire 1 ( Address_o_tb [6] $end
$var wire 1 ) Address_o_tb [5] $end
$var wire 1 * Address_o_tb [4] $end
$var wire 1 + Address_o_tb [3] $end
$var wire 1 , Address_o_tb [2] $end
$var wire 1 - Address_o_tb [1] $end
$var wire 1 . Address_o_tb [0] $end

$scope module fillter_mode4_module $end
$var wire 1 / Address_i [10] $end
$var wire 1 0 Address_i [9] $end
$var wire 1 1 Address_i [8] $end
$var wire 1 2 Address_i [7] $end
$var wire 1 3 Address_i [6] $end
$var wire 1 4 Address_i [5] $end
$var wire 1 5 Address_i [4] $end
$var wire 1 6 Address_i [3] $end
$var wire 1 7 Address_i [2] $end
$var wire 1 8 Address_i [1] $end
$var wire 1 9 Address_i [0] $end
$var wire 1 : Mode_i [3] $end
$var wire 1 ; Mode_i [2] $end
$var wire 1 < Mode_i [1] $end
$var wire 1 = Mode_i [0] $end
$var reg 11 > Address_o [10:0] $end
$upscope $end
$upscope $end
$enddefinitions $end
#0
$dumpvars
b0 !
b0 "
0#
b0 >
0.
0-
0,
0+
0*
0)
0(
0'
0&
0%
0$
0=
0<
0;
09
08
07
06
05
04
03
02
01
00
0/
z:
$end
#1000
1#
#2000
0#
#3000
1#
b1 !
19
b1 >
1.
#4000
0#
#5000
1#
b10 !
09
18
b10 >
0.
1-
#6000
0#
#7000
1#
b11 !
19
b11 >
1.
#8000
0#
#9000
1#
b100 !
09
08
17
b100 >
0.
0-
1,
#10000
0#
#11000
1#
b101 !
19
b101 >
1.
#12000
0#
#13000
1#
b110 !
09
18
b110 >
0.
1-
#14000
0#
#15000
1#
b111 !
19
b111 >
1.
#16000
0#
#17000
1#
b1000 !
09
08
07
16
b1000 >
0.
0-
0,
1+
#18000
0#
#19000
1#
b1001 !
19
b1001 >
1.
#20000
0#
#21000
1#
b1010 !
09
18
b1010 >
0.
1-
#22000
0#
#23000
1#
b1011 !
19
b1011 >
1.
#24000
0#
#25000
1#
b1100 !
09
08
17
b1100 >
0.
0-
1,
#26000
0#
#27000
1#
b1101 !
19
b1101 >
1.
#28000
0#
#29000
1#
b1110 !
09
18
b1110 >
0.
1-
#30000
0#
#31000
1#
b1111 !
19
b1111 >
1.
#32000
0#
#33000
1#
b10000 !
09
08
07
06
15
b10000 >
0.
0-
0,
0+
1*
#34000
0#
#35000
1#
b10001 !
19
b10001 >
1.
#36000
0#
#37000
1#
b10010 !
09
18
b10010 >
0.
1-
#38000
0#
#39000
1#
b10011 !
19
b10011 >
1.
#40000
0#
#41000
1#
b10100 !
09
08
17
b10100 >
0.
0-
1,
#42000
0#
#43000
1#
b10101 !
19
b10101 >
1.
#44000
0#
#45000
1#
b10110 !
09
18
b10110 >
0.
1-
#46000
0#
#47000
1#
b10111 !
19
b10111 >
1.
#48000
0#
#49000
1#
b11000 !
09
08
07
16
b11000 >
0.
0-
0,
1+
#50000
0#
#51000
1#
b11001 !
19
b11001 >
1.
#52000
0#
#53000
1#
b11010 !
09
18
b11010 >
0.
1-
#54000
0#
#55000
1#
b11011 !
19
b11011 >
1.
#56000
0#
#57000
1#
b11100 !
09
08
17
b11100 >
0.
0-
1,
#58000
0#
#59000
1#
b11101 !
19
b11101 >
1.
#60000
0#
#61000
1#
b11110 !
09
18
b11110 >
0.
1-
#62000
0#
#63000
1#
b11111 !
19
b11111 >
1.
#64000
0#
#65000
1#
b100000 !
09
08
07
06
05
14
b100000 >
0.
0-
0,
0+
0*
1)
#66000
0#
#67000
1#
b100001 !
19
b100001 >
1.
#68000
0#
#69000
1#
b100010 !
09
18
b100010 >
0.
1-
#70000
0#
#71000
1#
b100011 !
19
b100011 >
1.
#72000
0#
#73000
1#
b100100 !
09
08
17
b100100 >
0.
0-
1,
#74000
0#
#75000
1#
b100101 !
19
b100101 >
1.
#76000
0#
#77000
1#
b100110 !
09
18
b100110 >
0.
1-
#78000
0#
#79000
1#
b100111 !
19
b100111 >
1.
#80000
0#
#81000
1#
b101000 !
09
08
07
16
b101000 >
0.
0-
0,
1+
#82000
0#
#83000
1#
b101001 !
19
b101001 >
1.
#84000
0#
#85000
1#
b101010 !
09
18
b101010 >
0.
1-
#86000
0#
#87000
1#
b101011 !
19
b101011 >
1.
#88000
0#
#89000
1#
b101100 !
09
08
17
b101100 >
0.
0-
1,
#90000
0#
#91000
1#
b101101 !
19
b101101 >
1.
#92000
0#
#93000
1#
b101110 !
09
18
b101110 >
0.
1-
#94000
0#
#95000
1#
b101111 !
19
b101111 >
1.
#96000
0#
#97000
1#
b110000 !
09
08
07
06
15
b110000 >
0.
0-
0,
0+
1*
#98000
0#
#99000
1#
b110001 !
19
b110001 >
1.
#100000
0#
#101000
1#
b110010 !
09
18
b110010 >
0.
1-
#102000
0#
#103000
1#
b110011 !
19
b110011 >
1.
#104000
0#
#105000
1#
b110100 !
09
08
17
b110100 >
0.
0-
1,
#106000
0#
#107000
1#
b110101 !
19
b110101 >
1.
#108000
0#
#109000
1#
b110110 !
09
18
b110110 >
0.
1-
#110000
0#
#111000
1#
b110111 !
19
b110111 >
1.
#112000
0#
#113000
1#
b111000 !
09
08
07
16
b111000 >
0.
0-
0,
1+
#114000
0#
#115000
1#
b111001 !
19
b111001 >
1.
#116000
0#
#117000
1#
b111010 !
09
18
b111010 >
0.
1-
#118000
0#
#119000
1#
b111011 !
19
b111011 >
1.
#120000
0#
#121000
1#
b111100 !
09
08
17
b111100 >
0.
0-
1,
#122000
0#
#123000
1#
b111101 !
19
b111101 >
1.
#124000
0#
#125000
1#
b111110 !
09
18
b111110 >
0.
1-
#126000
0#
#127000
1#
b111111 !
19
b111111 >
1.
#128000
0#
#129000
1#
b1000000 !
09
08
07
06
05
04
13
b1000000 >
0.
0-
0,
0+
0*
0)
1(
#130000
0#
#131000
1#
b1000001 !
19
b1000001 >
1.
#132000
0#
#133000
1#
b1000010 !
09
18
b1000010 >
0.
1-
#134000
0#
#135000
1#
b1000011 !
19
b1000011 >
1.
#136000
0#
#137000
1#
b1000100 !
09
08
17
b1000100 >
0.
0-
1,
#138000
0#
#139000
1#
b1000101 !
19
b1000101 >
1.
#140000
0#
#141000
1#
b1000110 !
09
18
b1000110 >
0.
1-
#142000
0#
#143000
1#
b1000111 !
19
b1000111 >
1.
#144000
0#
#145000
1#
b1001000 !
09
08
07
16
b1001000 >
0.
0-
0,
1+
#146000
0#
#147000
1#
b1001001 !
19
b1001001 >
1.
#148000
0#
#149000
1#
b1001010 !
09
18
b1001010 >
0.
1-
#150000
0#
#151000
1#
b1001011 !
19
b1001011 >
1.
#152000
0#
#153000
1#
b1001100 !
09
08
17
b1001100 >
0.
0-
1,
#154000
0#
#155000
1#
b1001101 !
19
b1001101 >
1.
#156000
0#
#157000
1#
b1001110 !
09
18
b1001110 >
0.
1-
#158000
0#
#159000
1#
b1001111 !
19
b1001111 >
1.
#160000
0#
#161000
1#
b1010000 !
09
08
07
06
15
b1010000 >
0.
0-
0,
0+
1*
#162000
0#
#163000
1#
b1010001 !
19
b1010001 >
1.
#164000
0#
#165000
1#
b1010010 !
09
18
b1010010 >
0.
1-
#166000
0#
#167000
1#
b1010011 !
19
b1010011 >
1.
#168000
0#
#169000
1#
b1010100 !
09
08
17
b1010100 >
0.
0-
1,
#170000
0#
#171000
1#
b1010101 !
19
b1010101 >
1.
#172000
0#
#173000
1#
b1010110 !
09
18
b1010110 >
0.
1-
#174000
0#
#175000
1#
b1010111 !
19
b1010111 >
1.
#176000
0#
#177000
1#
b1011000 !
09
08
07
16
b1011000 >
0.
0-
0,
1+
#178000
0#
#179000
1#
b1011001 !
19
b1011001 >
1.
#180000
0#
#181000
1#
b1011010 !
09
18
b1011010 >
0.
1-
#182000
0#
#183000
1#
b1011011 !
19
b1011011 >
1.
#184000
0#
#185000
1#
b1011100 !
09
08
17
b1011100 >
0.
0-
1,
#186000
0#
#187000
1#
b1011101 !
19
b1011101 >
1.
#188000
0#
#189000
1#
b1011110 !
09
18
b1011110 >
0.
1-
#190000
0#
#191000
1#
b1011111 !
19
b1011111 >
1.
#192000
0#
#193000
1#
b1100000 !
09
08
07
06
05
14
b1100000 >
0.
0-
0,
0+
0*
1)
#194000
0#
#195000
1#
b1100001 !
19
b1100001 >
1.
#196000
0#
#197000
1#
b1100010 !
09
18
b1100010 >
0.
1-
#198000
0#
#199000
1#
b1100011 !
19
b1100011 >
1.
#200000
0#
#201000
1#
b1100100 !
09
08
17
b1100100 >
0.
0-
1,
