rom_witsanu_tb.vcd
$date
	Sun Jun 23 17:49:34 2024
$end
$version
	ModelSim Version 2020.1
$end
$timescale
	1ps
$end

$scope module rom_witsanu_tb $end
$var reg 1 ! Fg_CLK_tb $end
$var reg 1 " RESETn_tb $end
$var reg 11 # Address_i [10:0] $end
$var wire 1 $ dout_o [47] $end
$var wire 1 % dout_o [46] $end
$var wire 1 & dout_o [45] $end
$var wire 1 ' dout_o [44] $end
$var wire 1 ( dout_o [43] $end
$var wire 1 ) dout_o [42] $end
$var wire 1 * dout_o [41] $end
$var wire 1 + dout_o [40] $end
$var wire 1 , dout_o [39] $end
$var wire 1 - dout_o [38] $end
$var wire 1 . dout_o [37] $end
$var wire 1 / dout_o [36] $end
$var wire 1 0 dout_o [35] $end
$var wire 1 1 dout_o [34] $end
$var wire 1 2 dout_o [33] $end
$var wire 1 3 dout_o [32] $end
$var wire 1 4 dout_o [31] $end
$var wire 1 5 dout_o [30] $end
$var wire 1 6 dout_o [29] $end
$var wire 1 7 dout_o [28] $end
$var wire 1 8 dout_o [27] $end
$var wire 1 9 dout_o [26] $end
$var wire 1 : dout_o [25] $end
$var wire 1 ; dout_o [24] $end
$var wire 1 < dout_o [23] $end
$var wire 1 = dout_o [22] $end
$var wire 1 > dout_o [21] $end
$var wire 1 ? dout_o [20] $end
$var wire 1 @ dout_o [19] $end
$var wire 1 A dout_o [18] $end
$var wire 1 B dout_o [17] $end
$var wire 1 C dout_o [16] $end
$var wire 1 D dout_o [15] $end
$var wire 1 E dout_o [14] $end
$var wire 1 F dout_o [13] $end
$var wire 1 G dout_o [12] $end
$var wire 1 H dout_o [11] $end
$var wire 1 I dout_o [10] $end
$var wire 1 J dout_o [9] $end
$var wire 1 K dout_o [8] $end
$var wire 1 L dout_o [7] $end
$var wire 1 M dout_o [6] $end
$var wire 1 N dout_o [5] $end
$var wire 1 O dout_o [4] $end
$var wire 1 P dout_o [3] $end
$var wire 1 Q dout_o [2] $end
$var wire 1 R dout_o [1] $end
$var wire 1 S dout_o [0] $end

$scope module rom_witsanu_module $end
$var wire 1 T Fg_CLK $end
$var wire 1 U RESETn $end
$var wire 1 V Address [10] $end
$var wire 1 W Address [9] $end
$var wire 1 X Address [8] $end
$var wire 1 Y Address [7] $end
$var wire 1 Z Address [6] $end
$var wire 1 [ Address [5] $end
$var wire 1 \ Address [4] $end
$var wire 1 ] Address [3] $end
$var wire 1 ^ Address [2] $end
$var wire 1 _ Address [1] $end
$var wire 1 ` Address [0] $end
$var reg 48 a dout [47:0] $end
$upscope $end
$upscope $end
$enddefinitions $end
#0
$dumpvars
0!
0"
b0 #
b0 a
0S
0R
0Q
0P
0O
0N
0M
0L
0K
0J
0I
0H
0G
0F
0E
0D
0C
0B
0A
0@
0?
0>
0=
0<
0;
0:
09
08
07
06
05
04
03
02
01
00
0/
0.
0-
0,
0+
0*
0)
0(
0'
0&
0%
0$
0`
0_
0^
0]
0\
0[
0Z
0Y
0X
0W
0V
0U
0T
$end
#1
1!
1T
#2
0!
0T
#3
1!
1T
#4
0!
0T
#5
1!
1T
#6
0!
0T
#7
1!
1T
#8
0!
0T
#9
1!
1T
#10
0!
0T
#11
1!
1T
#12
0!
0T
#13
1!
1T
#14
0!
0T
#15
1!
1T
#16
0!
0T
#17
1!
1T
#18
0!
0T
#19
1!
1T
1"
1U
#20
0!
0T
#21
1!
1T
b110010111011100000110111111010011000101011011 a
1S
1R
1P
1O
1M
1K
1G
1F
1C
1A
1@
1?
1>
1=
1<
1:
19
13
12
11
1/
1.
1-
1+
1(
1'
#22
0!
0T
#23
1!
1T
#24
0!
0T
#25
1!
1T
#26
0!
0T
#27
1!
1T
#28
0!
0T
#29
1!
1T
#30
0!
0T
#31
1!
1T
#32
0!
0T
#33
1!
1T
#34
0!
0T
#35
1!
1T
#36
0!
0T
#37
1!
1T
#38
0!
0T
#39
1!
1T
#40
0!
0T
#41
1!
1T
b1 #
1`
#42
0!
0T
#43
1!
1T
b110011001011110011100111111010010101000100111 a
b10 #
0`
1_
1Q
0P
0O
1N
0M
0K
1J
1H
0G
0:
18
17
14
0.
0-
1,
#44
0!
0T
#45
1!
1T
b110011011100000110010111111010010001011101010 a
b11 #
1`
0S
0Q
1P
1M
1L
0H
1:
09
08
16
04
03
02
01
10
1.
#46
0!
0T
#47
1!
1T
b110011101100011001001111111010001101110100011 a
b100 #
0`
0_
1^
1S
0P
0M
1K
1H
1G
0F
1;
0:
18
07
06
15
14
0.
1-
#48
0!
0T
#49
1!
1T
b110011111100101011111111111010001010001010011 a
b101 #
1`
1O
0N
1M
0L
0K
0J
1I
0H
1:
19
17
04
13
1.
#50
0!
0T
#51
1!
1T
b110100001100111110101111111010000110011111010 a
b110 #
0`
1_
0S
1P
1N
1L
1H
0G
0:
08
16
14
0.
0-
0,
0+
1*
#52
0!
0T
#53
1!
1T
b110100011101010001100111111010000010110011000 a
b111 #
1`
0R
0N
0M
1K
0H
0;
18
07
06
05
03
12
1.
#54
0!
0T
#55
1!
1T
b110100101101100100010111111001111111000101101 a
b1000 #
0`
0_
0^
1]
1S
1Q
0O
1N
0L
0K
1J
1H
1G
1F
1E
1D
0C
1:
09
08
16
04
13
0.
1-
#56
0!
0T
#57
1!
1T
b110100111101110111000111111001111011010111000 a
b1001 #
1`
0S
0Q
1O
1L
0H
0:
18
17
14
1.
#58
0!
0T
#59
1!
1T
b110101001110001001110111111001110111100111011 a
b1010 #
0`
1_
1S
1R
0L
1K
1H
0G
1:
19
07
06
15
04
03
02
11
0.
0-
1,
#60
0!
0T
#61
1!
1T
b110101011110011100101111111001110011110110100 a
0S
0R
1Q
0P
1L
0H
1;
0:
08
16
14
1.
