rotary_tb.vcd
$date
	Sun Jun 23 18:24:01 2024
$end
$version
	ModelSim Version 2020.1
$end
$timescale
	1ps
$end

$scope module rotary_tb $end
$var reg 1 ! Fg_CLK_tb $end
$var reg 1 " RESETn_tb $end
$var reg 1 # Rot_A_i $end
$var reg 1 $ Rot_B_i $end
$var reg 1 % Rot_C_i $end
$var wire 1 & Adddress_o [10] $end
$var wire 1 ' Adddress_o [9] $end
$var wire 1 ( Adddress_o [8] $end
$var wire 1 ) Adddress_o [7] $end
$var wire 1 * Adddress_o [6] $end
$var wire 1 + Adddress_o [5] $end
$var wire 1 , Adddress_o [4] $end
$var wire 1 - Adddress_o [3] $end
$var wire 1 . Adddress_o [2] $end
$var wire 1 / Adddress_o [1] $end
$var wire 1 0 Adddress_o [0] $end
$var wire 1 1 FreqChng_o $end

$scope module rotary_module $end
$var parameter 32 2 counter_100ms $end
$var wire 1 3 Fg_CLK $end
$var wire 1 4 RESETn $end
$var wire 1 5 Rot_A $end
$var wire 1 6 Rot_B $end
$var wire 1 7 Rot_C $end
$var reg 11 8 Address [10:0] $end
$var reg 1 9 FreqChng $end
$var reg 12 : count [11:0] $end
$var reg 2 ; step_exp [1:0] $end
$var reg 2 < state [1:0] $end
$var reg 1 = A1 $end
$var reg 1 > A2 $end
$var reg 1 ? A3 $end
$var reg 1 @ A_pulse $end
$var reg 1 A B1 $end
$var reg 1 B B2 $end
$var reg 1 C B3 $end
$var reg 1 D B_pulse $end
$var reg 22 E counter [21:0] $end
$var reg 1 F counter_pulse $end
$upscope $end
$upscope $end
$enddefinitions $end
#0
$dumpvars
0!
0"
1#
1$
0%
b0 8
09
b0 :
b0 ;
b0 <
0=
0>
0?
0@
0A
0B
0C
0D
b0 E
0F
b101110111000 2
00
0/
0.
0-
0,
0+
0*
0)
0(
0'
0&
01
07
16
15
04
03
$end
#20833
1!
13
#41666
0!
03
#62499
1!
13
#83332
0!
03
#104165
1!
13
#124998
0!
03
#145831
1!
13
#166664
0!
03
#187497
1!
13
#208330
0!
03
#229163
1!
13
#249996
0!
03
#270829
1!
13
#291662
0!
03
#312495
1!
13
#333328
0!
03
#354161
1!
13
#374994
0!
03
#395827
1!
13
#416660
0!
03
#437493
1!
13
#458326
0!
03
#479159
1!
13
#499992
0!
03
#520825
1!
13
#541658
0!
03
#562491
1!
13
#583324
0!
03
#604157
1!
13
#624990
0!
03
#645823
1!
13
#666656
0!
03
#687489
1!
13
#708322
0!
03
#729155
1!
13
#749988
0!
03
#770821
1!
13
#791654
0!
03
#812487
1!
13
#833320
0!
03
#854153
1!
13
#874986
0!
03
#895819
1!
13
#916652
0!
03
#937485
1!
13
#958318
0!
03
#979151
1!
13
#999984
0!
03
#1020817
1!
13
#1041650
0!
03
#1062483
1!
13
#1083316
0!
03
#1104149
1!
13
#1124982
0!
03
#1145815
1!
13
#1166648
0!
03
#1187481
1!
13
#1208314
0!
03
#1229147
1!
13
#1249980
0!
03
#1270813
1!
13
#1291646
0!
03
#1312479
1!
13
#1333312
0!
03
#1354145
1!
13
#1374978
0!
03
#1395811
1!
13
#1416644
0!
03
#1437477
1!
13
#1458310
0!
03
#1479143
1!
13
#1499976
0!
03
#1520809
1!
13
#1541642
0!
03
#1562475
1!
13
#1583308
0!
03
#1604141
1!
13
#1624974
0!
03
#1645807
1!
13
#1666640
0!
03
#1687473
1!
13
#1708306
0!
03
#1729139
1!
13
#1749972
0!
03
#1770805
1!
13
#1791638
0!
03
#1812471
1!
13
#1833304
0!
03
#1854137
1!
13
#1874970
0!
03
#1895803
1!
13
#1916636
0!
03
#1937469
1!
13
#1958302
0!
03
#1979135
1!
13
#1999968
0!
03
#2020801
1!
13
#2041634
0!
03
#2062467
1!
13
#2083300
0!
03
#2104133
1!
13
#2124966
0!
03
#2145799
1!
13
#2166632
0!
03
#2187465
1!
13
#2208298
0!
03
#2229131
1!
13
#2249964
0!
03
#2270797
1!
13
#2291630
0!
03
#2312463
1!
13
#2333296
0!
03
#2354129
1!
13
#2374962
0!
03
#2395795
1!
13
#2416628
0!
03
#2437461
1!
13
#2458294
0!
03
#2479127
1!
13
#2499960
0!
03
#2520793
1!
13
#2541626
0!
03
#2562459
1!
13
#2583292
0!
03
#2604125
1!
13
#2624958
0!
03
#2645791
1!
13
#2666624
0!
03
#2687457
1!
13
#2708290
0!
03
#2729123
1!
13
#2749956
0!
03
#2770789
1!
13
#2791622
0!
03
#2812455
1!
13
#2833288
0!
03
#2854121
1!
13
#2874954
0!
03
#2895787
1!
13
#2916620
0!
03
#2937453
1!
13
#2958286
0!
03
#2979119
1!
13
#2999952
0!
03
#3020785
1!
13
#3041618
0!
03
#3062451
1!
13
#3083284
0!
03
#3104117
1!
13
#3124950
0!
03
#3145783
1!
13
#3166616
0!
03
#3187449
1!
13
#3208282
0!
03
#3229115
1!
13
#3249948
0!
03
#3270781
1!
13
#3291614
0!
03
#3312447
1!
13
#3333280
0!
03
#3354113
1!
13
#3374946
0!
03
#3395779
1!
13
#3416612
0!
03
#3437445
1!
13
#3458278
0!
03
#3479111
1!
13
#3499944
0!
03
#3520777
1!
13
#3541610
0!
03
#3562443
1!
13
#3583276
0!
03
#3604109
1!
13
#3624942
0!
03
#3645775
1!
13
#3666608
0!
03
#3687441
1!
13
#3708274
0!
03
#3729107
1!
13
#3749940
0!
03
#3770773
1!
13
#3791606
0!
03
#3812439
1!
13
#3833272
0!
03
#3854105
1!
13
#3874938
0!
03
#3895771
1!
13
#3916604
0!
03
#3937437
1!
13
#3958270
0!
03
#3979103
1!
13
#3999936
0!
03
#4020769
1!
13
#4041602
0!
03
#4062435
1!
13
#4083268
0!
03
#4104101
1!
13
#4124934
0!
03
#4145767
1!
13
1"
14
1=
1A
#4166600
0!
03
1>
1B
#4187433
1!
13
b1 E
#4208266
0!
03
1?
1C
#4229099
1!
13
b10 E
#4249932
0!
03
#4270765
1!
13
b11 E
#4291598
0!
03
#4312431
1!
13
b100 E
#4333264
0!
03
#4354097
1!
13
b101 E
#4374930
0!
03
#4395763
1!
13
b110 E
#4416596
0!
03
#4437429
1!
13
b111 E
#4458262
0!
03
#4479095
1!
13
b1000 E
#4499928
0!
03
#4520761
1!
13
b1001 E
#4541594
0!
03
#4562427
1!
13
b1010 E
#4583260
0!
03
#4604093
1!
13
b1011 E
#4624926
0!
03
#4645759
1!
13
b1100 E
#4666592
0!
03
#4687425
1!
13
b1101 E
#4708258
0!
03
#4729091
1!
13
b1110 E
#4749924
0!
03
#4770757
1!
13
b1111 E
#4791590
0!
03
#4812423
1!
13
b10000 E
#4833256
0!
03
#4854089
1!
13
b10001 E
#4874922
0!
03
#4895755
1!
13
b10010 E
#4916588
0!
03
#4937421
1!
13
b10011 E
#4958254
0!
03
#4979087
1!
13
b10100 E
#4999920
0!
03
#5020753
1!
13
b10101 E
#5041586
0!
03
#5062419
1!
13
b10110 E
#5083252
0!
03
#5104085
1!
13
b10111 E
#5124918
0!
03
#5145751
1!
13
b11000 E
#5166584
0!
03
#5187417
1!
13
b11001 E
#5208250
0!
03
#5229083
1!
13
b11010 E
#5249916
0!
03
#5270749
1!
13
b11011 E
#5291582
0!
03
#5312415
1!
13
b11100 E
#5333248
0!
03
#5354081
1!
13
b11101 E
#5374914
0!
03
#5395747
1!
13
b11110 E
#5416580
0!
03
#5437413
1!
13
b11111 E
#5458246
0!
03
#5479079
1!
13
b100000 E
#5499912
0!
03
#5520745
1!
13
b100001 E
#5541578
0!
03
#5562411
1!
13
b100010 E
#5583244
0!
03
#5604077
1!
13
b100011 E
#5624910
0!
03
#5645743
1!
13
b100100 E
#5666576
0!
03
#5687409
1!
13
b100101 E
#5708242
0!
03
#5729075
1!
13
b100110 E
#5749908
0!
03
#5770741
1!
13
b100111 E
#5791574
0!
03
#5812407
1!
13
b101000 E
#5833240
0!
03
#5854073
1!
13
b101001 E
#5874906
0!
03
#5895739
1!
13
b101010 E
#5916572
0!
03
#5937405
1!
13
b101011 E
#5958238
0!
03
#5979071
1!
13
b101100 E
#5999904
0!
03
#6020737
1!
13
b101101 E
#6041570
0!
03
#6062403
1!
13
b101110 E
#6083236
0!
03
#6104069
1!
13
b101111 E
#6124902
0!
03
#6145735
1!
13
b110000 E
#6166568
0!
03
#6187401
1!
13
b110001 E
#6208234
0!
03
#6229067
1!
13
b110010 E
#6249900
0!
03
#6270733
1!
13
b110011 E
#6291566
0!
03
#6312399
1!
13
b110100 E
#6333232
0!
03
#6354065
1!
13
b110101 E
#6374898
0!
03
#6395731
1!
13
b110110 E
#6416564
0!
03
#6437397
1!
13
b110111 E
#6458230
0!
03
#6479063
1!
13
b111000 E
#6499896
0!
03
#6520729
1!
13
b111001 E
#6541562
0!
03
#6562395
1!
13
b111010 E
#6583228
0!
03
#6604061
1!
13
b111011 E
#6624894
0!
03
#6645727
1!
13
b111100 E
#6666560
0!
03
#6687393
1!
13
b111101 E
#6708226
0!
03
#6729059
1!
13
b111110 E
#6749892
0!
03
#6770725
1!
13
b111111 E
#6791558
0!
03
#6812391
1!
13
b1000000 E
#6833224
0!
03
#6854057
1!
13
b1000001 E
#6874890
0!
03
#6895723
1!
13
b1000010 E
#6916556
0!
03
#6937389
1!
13
b1000011 E
#6958222
0!
03
#6979055
1!
13
b1000100 E
#6999888
0!
03
#7020721
1!
13
b1000101 E
#7041554
0!
03
#7062387
1!
13
b1000110 E
#7083220
0!
03
#7104053
1!
13
b1000111 E
#7124886
0!
03
#7145719
1!
13
b1001000 E
#7166552
0!
03
#7187385
1!
13
b1001001 E
#7208218
0!
03
#7229051
1!
13
b1001010 E
#7249884
0!
03
#7270717
1!
13
b1001011 E
#7291550
0!
03
#7312383
1!
13
b1001100 E
#7333216
0!
03
#7354049
1!
13
b1001101 E
#7374882
0!
03
#7395715
1!
13
b1001110 E
#7416548
0!
03
#7437381
1!
13
b1001111 E
#7458214
0!
03
#7479047
1!
13
b1010000 E
#7499880
0!
03
#7520713
1!
13
b1010001 E
#7541546
0!
03
#7562379
1!
13
b1010010 E
#7583212
0!
03
#7604045
1!
13
b1010011 E
#7624878
0!
03
#7645711
1!
13
b1010100 E
#7666544
0!
03
#7687377
1!
13
b1010101 E
#7708210
0!
03
#7729043
1!
13
b1010110 E
#7749876
0!
03
#7770709
1!
13
b1010111 E
#7791542
0!
03
#7812375
1!
13
b1011000 E
#7833208
0!
03
#7854041
1!
13
b1011001 E
#7874874
0!
03
#7895707
1!
13
b1011010 E
#7916540
0!
03
#7937373
1!
13
b1011011 E
#7958206
0!
03
#7979039
1!
13
b1011100 E
#7999872
0!
03
#8020705
1!
13
b1011101 E
#8041538
0!
03
#8062371
1!
13
b1011110 E
#8083204
0!
03
#8104037
1!
13
b1011111 E
#8124870
0!
03
#8145703
1!
13
b1100000 E
#8166536
0!
03
#8187369
1!
13
b1100001 E
#8208202
0!
03
#8229035
1!
13
b1100010 E
#8249868
0!
03
#8270701
1!
13
b1100011 E
#8291534
0!
03
#8312367
1!
13
b1100100 E
0#
05
#8333200
0!
03
0=
#8354033
1!
13
b1100101 E
#8374866
0!
03
0>
#8395699
1!
13
b1100110 E
#8416532
0!
03
0?
1@
#8437365
1!
13
b10 <
b1100111 E
#8458198
0!
03
0@
#8479031
1!
13
b1101000 E
#8499864
0!
03
#8520697
1!
13
b1101001 E
#8541530
0!
03
#8562363
1!
13
b1101010 E
#8583196
0!
03
#8604029
1!
13
b1101011 E
#8624862
0!
03
#8645695
1!
13
b1101100 E
#8666528
0!
03
#8687361
1!
13
b1101101 E
#8708194
0!
03
#8729027
1!
13
b1101110 E
#8749860
0!
03
#8770693
1!
13
b1101111 E
#8791526
0!
03
#8812359
1!
13
b1110000 E
#8833192
0!
03
#8854025
1!
13
b1110001 E
#8874858
0!
03
#8895691
1!
13
b1110010 E
#8916524
0!
03
#8937357
1!
13
b1110011 E
#8958190
0!
03
#8979023
1!
13
b1110100 E
#8999856
0!
03
#9020689
1!
13
b1110101 E
#9041522
0!
03
#9062355
1!
13
b1110110 E
#9083188
0!
03
#9104021
1!
13
b1110111 E
#9124854
0!
03
#9145687
1!
13
b1111000 E
#9166520
0!
03
#9187353
1!
13
b1111001 E
#9208186
0!
03
#9229019
1!
13
b1111010 E
#9249852
0!
03
#9270685
1!
13
b1111011 E
#9291518
0!
03
#9312351
1!
13
b1111100 E
#9333184
0!
03
#9354017
1!
13
b1111101 E
#9374850
0!
03
#9395683
1!
13
b1111110 E
#9416516
0!
03
#9437349
1!
13
b1111111 E
#9458182
0!
03
#9479015
1!
13
b10000000 E
#9499848
0!
03
#9520681
1!
13
b10000001 E
#9541514
0!
03
#9562347
1!
13
b10000010 E
#9583180
0!
03
#9604013
1!
13
b10000011 E
#9624846
0!
03
#9645679
1!
13
b10000100 E
#9666512
0!
03
#9687345
1!
13
b10000101 E
#9708178
0!
03
#9729011
1!
13
b10000110 E
#9749844
0!
03
#9770677
1!
13
b10000111 E
#9791510
0!
03
#9812343
1!
13
b10001000 E
#9833176
0!
03
#9854009
1!
13
b10001001 E
#9874842
0!
03
#9895675
1!
13
b10001010 E
#9916508
0!
03
#9937341
1!
13
b10001011 E
#9958174
0!
03
#9979007
1!
13
b10001100 E
#9999840
0!
03
#10020673
1!
13
b10001101 E
#10041506
0!
03
#10062339
1!
13
b10001110 E
#10083172
0!
03
#10104005
1!
13
b10001111 E
#10124838
0!
03
#10145671
1!
13
b10010000 E
#10166504
0!
03
#10187337
1!
13
b10010001 E
#10208170
0!
03
#10229003
1!
13
b10010010 E
#10249836
0!
03
#10270669
1!
13
b10010011 E
#10291502
0!
03
#10312335
1!
13
b10010100 E
#10333168
0!
03
#10354001
1!
13
b10010101 E
#10374834
0!
03
#10395667
1!
13
b10010110 E
#10416500
0!
03
#10437333
1!
13
b10010111 E
#10458166
0!
03
#10478999
1!
13
b10011000 E
#10499832
0!
03
#10520665
1!
13
b10011001 E
#10541498
0!
03
#10562331
1!
13
b10011010 E
#10583164
0!
03
#10603997
1!
13
b10011011 E
#10624830
0!
03
#10645663
1!
13
b10011100 E
#10666496
0!
03
#10687329
1!
13
b10011101 E
#10708162
0!
03
#10728995
1!
13
b10011110 E
#10749828
0!
03
#10770661
1!
13
b10011111 E
#10791494
0!
03
#10812327
1!
13
b10100000 E
#10833160
0!
03
#10853993
1!
13
b10100001 E
#10874826
0!
03
#10895659
1!
13
b10100010 E
#10916492
0!
03
#10937325
1!
13
b10100011 E
#10958158
0!
03
#10978991
1!
13
b10100100 E
#10999824
0!
03
#11020657
1!
13
b10100101 E
#11041490
0!
03
#11062323
1!
13
b10100110 E
#11083156
0!
03
#11103989
1!
13
b10100111 E
#11124822
0!
03
#11145655
1!
13
b10101000 E
#11166488
0!
03
#11187321
1!
13
b10101001 E
#11208154
0!
03
#11228987
1!
13
b10101010 E
#11249820
0!
03
#11270653
1!
13
b10101011 E
#11291486
0!
03
#11312319
1!
13
b10101100 E
#11333152
0!
03
#11353985
1!
13
b10101101 E
#11374818
0!
03
#11395651
1!
13
b10101110 E
#11416484
0!
03
#11437317
1!
13
b10101111 E
#11458150
0!
03
#11478983
1!
13
b10110000 E
#11499816
0!
03
#11520649
1!
13
b10110001 E
#11541482
0!
03
#11562315
1!
13
b10110010 E
#11583148
0!
03
#11603981
1!
13
b10110011 E
#11624814
0!
03
#11645647
1!
13
b10110100 E
#11666480
0!
03
#11687313
1!
13
b10110101 E
#11708146
0!
03
#11728979
1!
13
b10110110 E
#11749812
0!
03
#11770645
1!
13
b10110111 E
#11791478
0!
03
#11812311
1!
13
b10111000 E
#11833144
0!
03
#11853977
1!
13
b10111001 E
#11874810
0!
03
#11895643
1!
13
b10111010 E
#11916476
0!
03
#11937309
1!
13
b10111011 E
#11958142
0!
03
#11978975
1!
13
b10111100 E
#11999808
0!
03
#12020641
1!
13
b10111101 E
#12041474
0!
03
#12062307
1!
13
b10111110 E
#12083140
0!
03
#12103973
1!
13
b10111111 E
#12124806
0!
03
#12145639
1!
13
b11000000 E
#12166472
0!
03
#12187305
1!
13
b11000001 E
#12208138
0!
03
#12228971
1!
13
b11000010 E
#12249804
0!
03
#12270637
1!
13
b11000011 E
#12291470
0!
03
#12312303
1!
13
b11000100 E
#12333136
0!
03
#12353969
1!
13
b11000101 E
#12374802
0!
03
#12395635
1!
13
b11000110 E
#12416468
0!
03
#12437301
1!
13
b11000111 E
#12458134
0!
03
#12478967
1!
13
b11001000 E
0$
06
#12499800
0!
03
0A
#12520633
1!
13
b11001001 E
#12541466
0!
03
0B
#12562299
1!
13
b11001010 E
#12583132
0!
03
0C
1D
#12603965
1!
13
b0 <
b11001011 E
#12624798
0!
03
0D
#12645631
1!
13
b11001100 E
#12666464
0!
03
#12687297
1!
13
b11001101 E
#12708130
0!
03
#12728963
1!
13
b11001110 E
#12749796
0!
03
#12770629
1!
13
b11001111 E
#12791462
0!
03
#12812295
1!
13
b11010000 E
#12833128
0!
03
#12853961
1!
13
b11010001 E
#12874794
0!
03
#12895627
1!
13
b11010010 E
#12916460
0!
03
#12937293
1!
13
b11010011 E
#12958126
0!
03
#12978959
1!
13
b11010100 E
#12999792
0!
03
#13020625
1!
13
b11010101 E
#13041458
0!
03
#13062291
1!
13
b11010110 E
#13083124
0!
03
#13103957
1!
13
b11010111 E
#13124790
0!
03
#13145623
1!
13
b11011000 E
#13166456
0!
03
#13187289
1!
13
b11011001 E
#13208122
0!
03
#13228955
1!
13
b11011010 E
#13249788
0!
03
#13270621
1!
13
b11011011 E
#13291454
0!
03
#13312287
1!
13
b11011100 E
#13333120
0!
03
#13353953
1!
13
b11011101 E
#13374786
0!
03
#13395619
1!
13
b11011110 E
#13416452
0!
03
#13437285
1!
13
b11011111 E
#13458118
0!
03
#13478951
1!
13
b11100000 E
#13499784
0!
03
#13520617
1!
13
b11100001 E
#13541450
0!
03
#13562283
1!
13
b11100010 E
#13583116
0!
03
#13603949
1!
13
b11100011 E
#13624782
0!
03
#13645615
1!
13
b11100100 E
#13666448
0!
03
#13687281
1!
13
b11100101 E
#13708114
0!
03
#13728947
1!
13
b11100110 E
#13749780
0!
03
#13770613
1!
13
b11100111 E
#13791446
0!
03
#13812279
1!
13
b11101000 E
#13833112
0!
03
#13853945
1!
13
b11101001 E
#13874778
0!
03
#13895611
1!
13
b11101010 E
#13916444
0!
03
#13937277
1!
13
b11101011 E
#13958110
0!
03
#13978943
1!
13
b11101100 E
#13999776
0!
03
#14020609
1!
13
b11101101 E
#14041442
0!
03
#14062275
1!
13
b11101110 E
#14083108
0!
03
#14103941
1!
13
b11101111 E
#14124774
0!
03
#14145607
1!
13
b11110000 E
#14166440
0!
03
#14187273
1!
13
b11110001 E
#14208106
0!
03
#14228939
1!
13
b11110010 E
#14249772
0!
03
#14270605
1!
13
b11110011 E
#14291438
0!
03
#14312271
1!
13
b11110100 E
#14333104
0!
03
#14353937
1!
13
b11110101 E
#14374770
0!
03
#14395603
1!
13
b11110110 E
#14416436
0!
03
#14437269
1!
13
b11110111 E
#14458102
0!
03
#14478935
1!
13
b11111000 E
#14499768
0!
03
#14520601
1!
13
b11111001 E
#14541434
0!
03
#14562267
1!
13
b11111010 E
#14583100
0!
03
#14603933
1!
13
b11111011 E
#14624766
0!
03
#14645599
1!
13
b11111100 E
#14666432
0!
03
#14687265
1!
13
b11111101 E
#14708098
0!
03
#14728931
1!
13
b11111110 E
#14749764
0!
03
#14770597
1!
13
b11111111 E
#14791430
0!
03
#14812263
1!
13
b100000000 E
#14833096
0!
03
#14853929
1!
13
b100000001 E
#14874762
0!
03
#14895595
1!
13
b100000010 E
#14916428
0!
03
#14937261
1!
13
b100000011 E
#14958094
0!
03
#14978927
1!
13
b100000100 E
#14999760
0!
03
#15020593
1!
13
b100000101 E
#15041426
0!
03
#15062259
1!
13
b100000110 E
#15083092
0!
03
#15103925
1!
13
b100000111 E
#15124758
0!
03
#15145591
1!
13
b100001000 E
#15166424
0!
03
#15187257
1!
13
b100001001 E
#15208090
0!
03
#15228923
1!
13
b100001010 E
#15249756
0!
03
#15270589
1!
13
b100001011 E
#15291422
0!
03
#15312255
1!
13
b100001100 E
#15333088
0!
03
#15353921
1!
13
b100001101 E
#15374754
0!
03
#15395587
1!
13
b100001110 E
#15416420
0!
03
#15437253
1!
13
b100001111 E
#15458086
0!
03
#15478919
1!
13
b100010000 E
#15499752
0!
03
#15520585
1!
13
b100010001 E
#15541418
0!
03
#15562251
1!
13
b100010010 E
#15583084
0!
03
#15603917
1!
13
b100010011 E
#15624750
0!
03
#15645583
1!
13
b100010100 E
#15666416
0!
03
#15687249
1!
13
b100010101 E
#15708082
0!
03
#15728915
1!
13
b100010110 E
#15749748
0!
03
#15770581
1!
13
b100010111 E
#15791414
0!
03
#15812247
1!
13
b100011000 E
#15833080
0!
03
#15853913
1!
13
b100011001 E
#15874746
0!
03
#15895579
1!
13
b100011010 E
#15916412
0!
03
#15937245
1!
13
b100011011 E
#15958078
0!
03
#15978911
1!
13
b100011100 E
#15999744
0!
03
#16020577
1!
13
b100011101 E
#16041410
0!
03
#16062243
1!
13
b100011110 E
#16083076
0!
03
#16103909
1!
13
b100011111 E
#16124742
0!
03
#16145575
1!
13
b100100000 E
#16166408
0!
03
#16187241
1!
13
b100100001 E
#16208074
0!
03
#16228907
1!
13
b100100010 E
#16249740
0!
03
#16270573
1!
13
b100100011 E
#16291406
0!
03
#16312239
1!
13
b100100100 E
#16333072
0!
03
#16353905
1!
13
b100100101 E
#16374738
0!
03
#16395571
1!
13
b100100110 E
#16416404
0!
03
#16437237
1!
13
b100100111 E
#16458070
0!
03
#16478903
1!
13
b100101000 E
#16499736
0!
03
#16520569
1!
13
b100101001 E
#16541402
0!
03
#16562235
1!
13
b100101010 E
#16583068
0!
03
#16603901
1!
13
b100101011 E
#16624734
0!
03
#16645567
1!
13
b100101100 E
1#
15
#16666400
0!
03
1=
#16687233
1!
13
b100101101 E
#16708066
0!
03
1>
#16728899
1!
13
b100101110 E
#16749732
0!
03
1?
#16770565
1!
13
b100101111 E
#16791398
0!
03
#16812231
1!
13
b100110000 E
#16833064
0!
03
#16853897
1!
13
b100110001 E
#16874730
0!
03
#16895563
1!
13
b100110010 E
#16916396
0!
03
#16937229
1!
13
b100110011 E
#16958062
0!
03
#16978895
1!
13
b100110100 E
#16999728
0!
03
#17020561
1!
13
b100110101 E
#17041394
0!
03
#17062227
1!
13
b100110110 E
#17083060
0!
03
#17103893
1!
13
b100110111 E
#17124726
0!
03
#17145559
1!
13
b100111000 E
#17166392
0!
03
#17187225
1!
13
b100111001 E
#17208058
0!
03
#17228891
1!
13
b100111010 E
#17249724
0!
03
#17270557
1!
13
b100111011 E
#17291390
0!
03
#17312223
1!
13
b100111100 E
#17333056
0!
03
#17353889
1!
13
b100111101 E
#17374722
0!
03
#17395555
1!
13
b100111110 E
#17416388
0!
03
#17437221
1!
13
b100111111 E
#17458054
0!
03
#17478887
1!
13
b101000000 E
#17499720
0!
03
#17520553
1!
13
b101000001 E
#17541386
0!
03
#17562219
1!
13
b101000010 E
#17583052
0!
03
#17603885
1!
13
b101000011 E
#17624718
0!
03
#17645551
1!
13
b101000100 E
#17666384
0!
03
#17687217
1!
13
b101000101 E
#17708050
0!
03
#17728883
1!
13
b101000110 E
#17749716
0!
03
#17770549
1!
13
b101000111 E
#17791382
0!
03
#17812215
1!
13
b101001000 E
#17833048
0!
03
#17853881
1!
13
b101001001 E
#17874714
0!
03
#17895547
1!
13
b101001010 E
#17916380
0!
03
#17937213
1!
13
b101001011 E
#17958046
0!
03
#17978879
1!
13
b101001100 E
#17999712
0!
03
#18020545
1!
13
b101001101 E
#18041378
0!
03
#18062211
1!
13
b101001110 E
#18083044
0!
03
#18103877
1!
13
b101001111 E
#18124710
0!
03
#18145543
1!
13
b101010000 E
#18166376
0!
03
#18187209
1!
13
b101010001 E
#18208042
0!
03
#18228875
1!
13
b101010010 E
#18249708
0!
03
#18270541
1!
13
b101010011 E
#18291374
0!
03
#18312207
1!
13
b101010100 E
#18333040
0!
03
#18353873
1!
13
b101010101 E
#18374706
0!
03
#18395539
1!
13
b101010110 E
#18416372
0!
03
#18437205
1!
13
b101010111 E
#18458038
0!
03
#18478871
1!
13
b101011000 E
#18499704
0!
03
#18520537
1!
13
b101011001 E
#18541370
0!
03
#18562203
1!
13
b101011010 E
#18583036
0!
03
#18603869
1!
13
b101011011 E
#18624702
0!
03
#18645535
1!
13
b101011100 E
#18666368
0!
03
#18687201
1!
13
b101011101 E
#18708034
0!
03
#18728867
1!
13
b101011110 E
#18749700
0!
03
#18770533
1!
13
b101011111 E
#18791366
0!
03
#18812199
1!
13
b101100000 E
#18833032
0!
03
#18853865
1!
13
b101100001 E
#18874698
0!
03
#18895531
1!
13
b101100010 E
#18916364
0!
03
#18937197
1!
13
b101100011 E
#18958030
0!
03
#18978863
1!
13
b101100100 E
#18999696
0!
03
#19020529
1!
13
b101100101 E
#19041362
0!
03
#19062195
1!
13
b101100110 E
#19083028
0!
03
#19103861
1!
13
b101100111 E
#19124694
0!
03
#19145527
1!
13
b101101000 E
#19166360
0!
03
#19187193
1!
13
b101101001 E
#19208026
0!
03
#19228859
1!
13
b101101010 E
#19249692
0!
03
#19270525
1!
13
b101101011 E
#19291358
0!
03
#19312191
1!
13
b101101100 E
#19333024
0!
03
#19353857
1!
13
b101101101 E
#19374690
0!
03
#19395523
1!
13
b101101110 E
#19416356
0!
03
#19437189
1!
13
b101101111 E
#19458022
0!
03
#19478855
1!
13
b101110000 E
#19499688
0!
03
#19520521
1!
13
b101110001 E
#19541354
0!
03
#19562187
1!
13
b101110010 E
#19583020
0!
03
#19603853
1!
13
b101110011 E
#19624686
0!
03
#19645519
1!
13
b101110100 E
#19666352
0!
03
#19687185
1!
13
b101110101 E
#19708018
0!
03
#19728851
1!
13
b101110110 E
#19749684
0!
03
#19770517
1!
13
b101110111 E
#19791350
0!
03
#19812183
1!
13
b101111000 E
#19833016
0!
03
#19853849
1!
13
b101111001 E
#19874682
0!
03
#19895515
1!
13
b101111010 E
#19916348
0!
03
#19937181
1!
13
b101111011 E
#19958014
0!
03
#19978847
1!
13
b101111100 E
#19999680
0!
03
#20020513
1!
13
b101111101 E
#20041346
0!
03
#20062179
1!
13
b101111110 E
#20083012
0!
03
#20103845
1!
13
b101111111 E
#20124678
0!
03
#20145511
1!
13
b110000000 E
#20166344
0!
03
#20187177
1!
13
b110000001 E
#20208010
0!
03
#20228843
1!
13
b110000010 E
#20249676
0!
03
#20270509
1!
13
b110000011 E
#20291342
0!
03
#20312175
1!
13
b110000100 E
#20333008
0!
03
#20353841
1!
13
b110000101 E
#20374674
0!
03
#20395507
1!
13
b110000110 E
#20416340
0!
03
#20437173
1!
13
b110000111 E
#20458006
0!
03
#20478839
1!
13
b110001000 E
#20499672
0!
03
#20520505
1!
13
b110001001 E
#20541338
0!
03
#20562171
1!
13
b110001010 E
#20583004
0!
03
#20603837
1!
13
b110001011 E
#20624670
0!
03
#20645503
1!
13
b110001100 E
#20666336
0!
03
#20687169
1!
13
b110001101 E
#20708002
0!
03
#20728835
1!
13
b110001110 E
#20749668
0!
03
#20770501
1!
13
b110001111 E
#20791334
0!
03
#20812167
1!
13
b110010000 E
1$
16
#20833000
0!
03
1A
#20853833
1!
13
b110010001 E
#20874666
0!
03
1B
#20895499
1!
13
b110010010 E
#20916332
0!
03
1C
#20937165
1!
13
b110010011 E
#20957998
0!
03
#20978831
1!
13
b110010100 E
#20999664
0!
03
#21020497
1!
13
b110010101 E
#21041330
0!
03
#21062163
1!
13
b110010110 E
#21082996
0!
03
#21103829
1!
13
b110010111 E
#21124662
0!
03
#21145495
1!
13
b110011000 E
#21166328
0!
03
#21187161
1!
13
b110011001 E
#21207994
0!
03
#21228827
1!
13
b110011010 E
#21249660
0!
03
#21270493
1!
13
b110011011 E
#21291326
0!
03
#21312159
1!
13
b110011100 E
#21332992
0!
03
#21353825
1!
13
b110011101 E
#21374658
0!
03
#21395491
1!
13
b110011110 E
#21416324
0!
03
#21437157
1!
13
b110011111 E
#21457990
0!
03
#21478823
1!
13
b110100000 E
#21499656
0!
03
#21520489
1!
13
b110100001 E
#21541322
0!
03
#21562155
1!
13
b110100010 E
#21582988
0!
03
#21603821
1!
13
b110100011 E
#21624654
0!
03
#21645487
1!
13
b110100100 E
#21666320
0!
03
#21687153
1!
13
b110100101 E
#21707986
0!
03
#21728819
1!
13
b110100110 E
#21749652
0!
03
#21770485
1!
13
b110100111 E
#21791318
0!
03
#21812151
1!
13
b110101000 E
#21832984
0!
03
#21853817
1!
13
b110101001 E
#21874650
0!
03
#21895483
1!
13
b110101010 E
#21916316
0!
03
#21937149
1!
13
b110101011 E
#21957982
0!
03
#21978815
1!
13
b110101100 E
#21999648
0!
03
#22020481
1!
13
b110101101 E
#22041314
0!
03
#22062147
1!
13
b110101110 E
#22082980
0!
03
#22103813
1!
13
b110101111 E
#22124646
0!
03
#22145479
1!
13
b110110000 E
#22166312
0!
03
#22187145
1!
13
b110110001 E
#22207978
0!
03
#22228811
1!
13
b110110010 E
#22249644
0!
03
#22270477
1!
13
b110110011 E
#22291310
0!
03
#22312143
1!
13
b110110100 E
#22332976
0!
03
#22353809
1!
13
b110110101 E
#22374642
0!
03
#22395475
1!
13
b110110110 E
#22416308
0!
03
#22437141
1!
13
b110110111 E
#22457974
0!
03
#22478807
1!
13
b110111000 E
#22499640
0!
03
#22520473
1!
13
b110111001 E
#22541306
0!
03
#22562139
1!
13
b110111010 E
#22582972
0!
03
#22603805
1!
13
b110111011 E
#22624638
0!
03
#22645471
1!
13
b110111100 E
#22666304
0!
03
#22687137
1!
13
b110111101 E
#22707970
0!
03
#22728803
1!
13
b110111110 E
#22749636
0!
03
#22770469
1!
13
b110111111 E
#22791302
0!
03
